Name,WeightClassKg,Division,Sex,Best3SquatKg,Best3BenchKg,Best3DeadliftKg,TotalKg,Event,Equipment,Place
T. Durachta,56,Open,M,157.5,82.5,165,405,SBD,Single-ply,1
D. Simpson,56,Open,M,127.5,102.5,162.5,392.5,SBD,Single-ply,2
V. Garramone,56,Open,M,117.5,92.5,135,345,SBD,Single-ply,3
K. Niemeyer,56,Open,M,117.5,55,137.5,310,SBD,Single-ply,4
Richard DelGallo,60,Open,M,167.5,125,187.5,480,SBD,Single-ply,1
K. Minton,60,Open,M,170,100,187.5,457.5,SBD,Single-ply,2
N. Brown,60,Open,M,155,95,182.5,432.5,SBD,Single-ply,3
R. Holt,60,Open,M,147.5,100,182.5,430,SBD,Single-ply,4
J. Burris,60,Open,M,160,92.5,157.5,410,SBD,Single-ply,5
P. Lazrovitch,60,Open,M,127.5,87.5,155,370,SBD,Single-ply,6
R. Manire,60,Open,M,110,82.5,137.5,330,SBD,Single-ply,7
Kevin Bolen,67.5,Open,M,205,112.5,210,527.5,SBD,Single-ply,1
G. Webb,67.5,Open,M,172.5,107.5,195,475,SBD,Single-ply,2
J. Durachta,67.5,Open,M,170,90,210,470,SBD,Single-ply,3
Jeff Mumaw,67.5,Open,M,150,102.5,192.5,445,SBD,Single-ply,4
G. Nickleson,67.5,Open,M,132.5,122.5,182.5,437.5,SBD,Single-ply,5
M. Evans,67.5,Open,M,122.5,132.5,177.5,432.5,SBD,Single-ply,6
I. Jaquiss,67.5,Open,M,,112.5,,112.5,B,Raw,1
John Hare,75,Open,M,205,137.5,240,582.5,SBD,Single-ply,1
T. Jeffers,75,Open,M,215,137.5,215,567.5,SBD,Single-ply,2
Pat Malone,75,Open,M,202.5,107.5,225,535,SBD,Single-ply,3
J. Martin,75,Open,M,205,115,197.5,517.5,SBD,Single-ply,4
B. Luebbeks,75,Open,M,170,110,200,480,SBD,Single-ply,5
J. Smith,75,Open,M,152.5,125,200,477.5,SBD,Single-ply,6
A. Baldwin,75,Open,M,167.5,112.5,190,470,SBD,Single-ply,7
J. Owens,75,Open,M,,,,,SBD,Single-ply,DQ
Dana Rosenzweig,82.5,Open,M,230,167.5,272.5,670,SBD,Single-ply,1
D. Hall,82.5,Open,M,215,130,257.5,602.5,SBD,Single-ply,2
L. Rondall,82.5,Open,M,222.5,137.5,217.5,577.5,SBD,Single-ply,3
J. Mazeqie,82.5,Open,M,190,127.5,227.5,545,SBD,Single-ply,4
B. Wilson,82.5,Open,M,182.5,120,237.5,540,SBD,Single-ply,5
M. Folz,82.5,Open,M,182.5,105,212.5,500,SBD,Single-ply,6
G. Galey,82.5,Open,M,187.5,122.5,182.5,492.5,SBD,Single-ply,7
J. Haghart,82.5,Open,M,157.5,102.5,202.5,462.5,SBD,Single-ply,8
P. McClellan,82.5,Open,M,172.5,117.5,,,SBD,Single-ply,DQ
B. Clodfetter,82.5,Open,M,,,,,SBD,Single-ply,DQ
Robert Craft,90,Open,M,247.5,160,287.5,695,SBD,Single-ply,1
T. Stewart,90,Open,M,235,110,250,595,SBD,Single-ply,2
S. Haghart,90,Open,M,197.5,115,222.5,535,SBD,Single-ply,3
R. Luigs,90,Open,M,190,120,225,535,SBD,Single-ply,4
P. Tyring,90,Open,M,205,110,215,530,SBD,Single-ply,5
K. Wertman,90,Open,M,192.5,120,205,517.5,SBD,Single-ply,6
T. Lugbbers,90,Open,M,167.5,100,205,472.5,SBD,Single-ply,7
Jason Stromsdorfer,90,Open,M,25,185,25,235,SBD,Single-ply,8
G. McMillon,90,Open,M,,,,,SBD,Single-ply,DQ
Jim Mize,100,Open,M,302.5,200,285,787.5,SBD,Single-ply,1
B. Trawick,100,Open,M,250,160,262.5,672.5,SBD,Single-ply,2
Wayne Hedden,100,Open,M,240,162.5,270,672.5,SBD,Single-ply,3
Ed Gosselin,100,Open,M,237.5,142.5,227.5,607.5,SBD,Single-ply,4
S. DeLong,100,Open,M,210,112.5,222.5,545,SBD,Single-ply,5
D. Harris,100,Open,M,165,107.5,227.5,500,SBD,Single-ply,6
B. Tucker,100,Open,M,180,117.5,195,492.5,SBD,Single-ply,7
M. Goodman,100,Open,M,227.5,,,,SBD,Single-ply,DQ
K. McDonough,100,Open,M,,,,,SBD,Single-ply,DQ
Paul White,110,Open,M,302.5,175,310,787.5,SBD,Single-ply,1
Victor Vandivier,110,Open,M,282.5,152.5,272.5,707.5,SBD,Single-ply,2
R. Slawson,110,Open,M,,,,,SBD,Single-ply,DQ
R. Mason,125,Open,M,212.5,170,265,647.5,SBD,Single-ply,1
K. Huggen,125,Open,M,,,,,SBD,Single-ply,DQ
J. Pierce,125,Open,M,,,,,SBD,Single-ply,DQ
Don Martin,125+,Open,M,282.5,165,300,747.5,SBD,Single-ply,1
Arte Larson,125+,Open,M,,,,,SBD,Single-ply,DQ
Steve Prince,52,Teen,M,110,65,152.5,327.5,SBD,Single-ply,1
B. Foxworth,52,Teen,M,112.5,72.5,127.5,312.5,SBD,Single-ply,2
C. Chambers,52,Teen,M,117.5,55,130,302.5,SBD,Single-ply,3
B. Stephens,56,Teen,M,115,80,147.5,342.5,SBD,Single-ply,1
C. Hanson,56,Teen,M,77.5,67.5,140,285,SBD,Single-ply,2
B. Sprinkle,56,Teen,M,102.5,55,117.5,275,SBD,Single-ply,3
Brian Foddrill,56,Teen,M,,,,,SBD,Single-ply,DQ
N. Brown,60,Teen,M,155,95,182.5,432.5,SBD,Single-ply,1
A. Purcell,60,Teen,M,112.5,85,160,357.5,SBD,Single-ply,2
D. Brantly,60,Teen,M,105,72.5,140,317.5,SBD,Single-ply,3
T. Smith,67.5,Teen,M,200,120,205,525,SBD,Single-ply,1
B. Wilson,67.5,Teen,M,172.5,110,205,487.5,SBD,Single-ply,2
M. Willett,67.5,Teen,M,150,110,180,440,SBD,Single-ply,3
R. Murray,67.5,Teen,M,160,95,167.5,422.5,SBD,Single-ply,4
J. Barber,67.5,Teen,M,162.5,77.5,182.5,422.5,SBD,Single-ply,5
T. Garry,67.5,Teen,M,125,85,185,395,SBD,Single-ply,6
M. Kiefer,67.5,Teen,M,157.5,80,155,392.5,SBD,Single-ply,7
M. O'Connor,67.5,Teen,M,135,105,150,390,SBD,Single-ply,8
R. Coffey,67.5,Teen,M,110,70,137.5,317.5,SBD,Single-ply,9
D. Henson,67.5,Teen,M,147.5,,,,SBD,Single-ply,DQ
S. Reinke,67.5,Teen,M,,,,,SBD,Single-ply,DQ
D. Lakey,75,Teen,M,230,122.5,210,562.5,SBD,Single-ply,1
C. Miller,75,Teen,M,155,97.5,170,422.5,SBD,Single-ply,2
A. Bredemeir,75,Teen,M,155,90,170,415,SBD,Single-ply,3
J. Kell,75,Teen,M,137.5,95,175,407.5,SBD,Single-ply,4
J. Kiefer,75,Teen,M,147.5,82.5,175,405,SBD,Single-ply,5
M. Ullom,82.5,Teen,M,195,137.5,237.5,570,SBD,Single-ply,1
M. Strohm,82.5,Teen,M,202.5,125,240,567.5,SBD,Single-ply,2
B. Missi,82.5,Teen,M,180,107.5,220,507.5,SBD,Single-ply,3
F. Greener,82.5,Teen,M,192.5,105,210,507.5,SBD,Single-ply,4
D. Miller,82.5,Teen,M,167.5,97.5,177.5,442.5,SBD,Single-ply,5
D. Corra,82.5,Teen,M,150,70,170,390,SBD,Single-ply,6
J. Russ,90,Teen,M,195,117.5,200,512.5,SBD,Single-ply,1
T. Greener,90,Teen,M,167.5,87.5,190,445,SBD,Single-ply,2
L. Roth,90,Teen,M,132.5,95,165,392.5,SBD,Single-ply,3
T. Griggs,90,Teen,M,140,67.5,152.5,360,SBD,Single-ply,4
T. Bauman,100,Teen,M,192.5,165,230,587.5,SBD,Single-ply,1
Doug Ballard,100,Teen,M,225,117.5,240,582.5,SBD,Single-ply,2
J. Schmidt,100,Teen,M,205,107.5,217.5,530,SBD,Single-ply,3
M. Toland,100,Teen,M,182.5,107.5,197.5,487.5,SBD,Single-ply,4
J. Groce,100,Teen,M,172.5,115,190,477.5,SBD,Single-ply,5
John Tewbarge,100,Teen,M,95,65,165,325,SBD,Single-ply,6
T. Mooney,110,Teen,M,210,100,205,515,SBD,Single-ply,1
K. Terrell,125,Teen,M,172.5,107.5,197.5,477.5,SBD,Single-ply,1
Julie Austin,,Open,F,142.5,67.5,135,345,SBD,Single-ply,1
Janice Johnson,,Open,F,165,90,162.5,417.5,SBD,Single-ply,2
Judy Gedney,,Open,F,90,60,122.5,272.5,SBD,Single-ply,3
Ruth Welding,,Open,F,142.5,67.5,162.5,372.5,SBD,Single-ply,4
Ann Tuite,,Open,F,110,50,130,290,SBD,Single-ply,5
Natalie Weber #2,,Open,F,90,60,127.5,277.5,SBD,Single-ply,6
C. Koh-Knox,,Open,F,135,45,137.5,317.5,SBD,Single-ply,7
Laura Jager,,Open,F,85,52.5,115,252.5,SBD,Single-ply,8
Sherry Kahle,,Open,F,105,55,125,285,SBD,Single-ply,9
Mary-Lou Atwell,,Open,F,85,57.5,115,257.5,SBD,Single-ply,10
Donna Malone-Wicker,,Open,F,102.5,42.5,112.5,257.5,SBD,Single-ply,11
Angie Doerr,,Open,F,112.5,55,107.5,275,SBD,Single-ply,12
P. Woods,,Open,F,167.5,75,170,412.5,SBD,Single-ply,13
Kathy Tuite,,Open,F,100,40,90,230,SBD,Single-ply,14
M. Fortune,,Open,F,92.5,42.5,97.5,232.5,SBD,Single-ply,15
G. Goren,,Open,F,72.5,37.5,85,195,SBD,Single-ply,16
D. Wilson,,Open,F,102.5,57.5,137.5,297.5,SBD,Single-ply,17
B. Clifton,,Open,F,92.5,47.5,115,255,SBD,Single-ply,18
C. Miller,,Open,F,72.5,37.5,95,205,SBD,Single-ply,19
S. Tipton,,Open,F,80,32.5,80,192.5,SBD,Single-ply,20
B. Wallace,,Open,F,102.5,40,100,242.5,SBD,Single-ply,21
T. Belcher,,Open,F,47.5,,,,SBD,Single-ply,DQ
