Division,WeightClassKg,Place,Name,Team,BodyweightKg,Best3SquatKg,Best3BenchKg,Best3DeadliftKg,TotalKg,Equipment,Event,Sex
Boys,51.71,1,Austin Peppers,Rice,51.71,136.08,56.7,140.61,333.39,Single-ply,SBD,M
Boys,51.71,2,Jaime Luna,Palmer,49.9,133.81,58.97,133.81,326.59,Single-ply,SBD,M
Boys,51.71,3,Danny De Los Santos,Red Oak Life,51.44,117.93,61.23,138.35,317.51,Single-ply,SBD,M
Boys,51.71,4,Ryder Brock,Detroit,50.98,122.47,58.97,131.54,312.98,Single-ply,SBD,M
Boys,51.71,5,Ivan Navarro,Corsicana Mildred,51.26,120.2,56.7,129.27,306.17,Single-ply,SBD,M
Boys,51.71,6,Jaquay Brown,Milford,50.62,108.86,61.23,129.27,299.37,Single-ply,SBD,M
Boys,51.71,7,Sam McCoy,New Boston,51.53,113.4,61.23,124.74,299.37,Single-ply,SBD,M
Boys,55.79,8,Caleb Bush,Elysian Fields,51.8,97.52,65.77,115.67,278.96,Single-ply,SBD,M
Boys,51.71,9,Dillon Silvis,New Waverly,50.71,113.4,43.09,104.33,260.82,Single-ply,SBD,M
Boys,59.87,1,Tyler West,Shelbyville,55.88,174.63,95.25,165.56,435.45,Single-ply,SBD,M
Boys,55.79,2,Brandon Jones,Cumby,55.16,154.22,104.33,158.76,417.3,Single-ply,SBD,M
Boys,55.79,3,Jace Pallan,Celeste,55.79,151.95,92.99,161.03,405.97,Single-ply,SBD,M
Boys,55.79,4,Ezra Zepeda,Red Oak Life,54.98,145.15,68.04,167.83,381.02,Single-ply,SBD,M
Boys,55.79,5,Trey Russell,Eustace,55.61,127.01,77.11,145.15,349.27,Single-ply,SBD,M
Boys,59.87,6,Roberto Oropeza,Rice,56.02,140.61,68.04,140.61,349.27,Single-ply,SBD,M
Boys,55.79,7,Angel Ross,Quitman,54.7,117.93,77.11,149.69,344.73,Single-ply,SBD,M
Boys,55.79,DQ,Caleb Terrell,Frankston,55.07,,,,,Single-ply,SBD,M
Boys,59.87,1,Brady Rose,Mineola,58.88,192.78,81.65,188.24,462.66,Single-ply,SBD,M
Boys,59.87,2,Tate Hartley,Buffalo,59.33,183.7,92.99,181.44,458.13,Single-ply,SBD,M
Boys,59.87,3,Cody DeFore,Elkhart,59.87,163.29,97.52,188.24,449.06,Single-ply,SBD,M
Boys,59.87,4,Josh Boone,Winnsboro,58.74,170.1,90.72,165.56,426.38,Single-ply,SBD,M
Boys,59.87,5,Xavier Scott,Red Oak Life,59.06,167.83,77.11,167.83,412.77,Single-ply,SBD,M
Boys,67.13,6,Codie Pair,Rice,60.06,140.61,106.59,165.56,412.77,Single-ply,SBD,M
Boys,59.87,7,Bruce Barlow,San Augustine,58.69,154.22,90.72,165.56,410.5,Single-ply,SBD,M
Boys,59.87,8,Justin Johnson,Mount Enterprise,59.78,170.1,79.38,158.76,408.23,Single-ply,SBD,M
Boys,59.87,9,JaMarkus Boyd,Ore City,58.42,136.08,95.25,170.1,401.43,Single-ply,SBD,M
Boys,59.87,10,Howard Watts,San Augustine,59.06,147.42,95.25,158.76,401.43,Single-ply,SBD,M
Boys,67.13,1,David Calixtro,Teague,65.32,215.46,108.86,213.19,537.51,Single-ply,SBD,M
Boys,67.13,2,Cory Davis,Diana New Diana,64.95,195.04,92.99,188.24,476.27,Single-ply,SBD,M
Boys,67.13,3,Justin Vanderwater,Laird Hill Leveretts Chapel,62.69,170.1,111.13,188.24,469.47,Single-ply,SBD,M
Boys,67.13,4,Quade Taliaferro,Gladewater Sabine,65.59,174.63,88.45,190.51,453.59,Single-ply,SBD,M
Boys,67.13,5,Greg Morgan,Hughes Springs,64.95,176.9,104.33,154.22,435.45,Single-ply,SBD,M
Boys,67.13,6,Taylor Young #4,Ore City,66.22,163.29,83.91,176.9,424.11,Single-ply,SBD,M
Boys,67.13,7,Daniel Broyles,Quinlan Boles,65.41,158.76,106.59,124.74,390.09,Single-ply,SBD,M
Boys,67.13,DQ,Jared Arey,Teague,63.96,158.76,92.99,,,Single-ply,SBD,M
Boys,67.13,DQ,Karson Street,Malakoff,65.32,158.76,,,,Single-ply,SBD,M
Boys,67.13,DQ,Tate Molandes,Elkhart,62.96,,,,,Single-ply,SBD,M
Boys,74.84,1,Caleb Skahan,Caddo Mills,73.94,238.14,138.35,229.06,605.55,Single-ply,SBD,M
Boys,74.84,2,Stephen Lehew,Maypearl,73.21,226.8,154.22,208.65,589.67,Single-ply,SBD,M
Boys,74.84,3,Travis Oden,Cooper,74.84,190.51,131.54,199.58,521.63,Single-ply,SBD,M
Boys,74.84,4,Coy Jorden,Teague,73.39,183.7,115.67,204.12,503.49,Single-ply,SBD,M
Boys,74.84,5,Cason Fogle,Diana New Diana,74.57,181.44,124.74,183.7,489.88,Single-ply,SBD,M
Boys,74.84,6,John Coe,Linden-Kildare,74.84,176.9,111.13,199.58,487.61,Single-ply,SBD,M
Boys,74.84,7,Brazos Sepert,Maypearl,72.39,181.44,99.79,204.12,485.34,Single-ply,SBD,M
Boys,74.84,DQ,Cody Markham,New Waverly,72.48,190.51,,,,Single-ply,SBD,M
Boys,74.84,DQ,Brandon Greene,Winnsboro,71.67,235.87,127.01,,,Single-ply,SBD,M
Boys,82.1,1,Ruben Sanchez,Mineola,80.56,238.14,165.56,242.67,646.37,Single-ply,SBD,M
Boys,82.1,2,Jose Dominguez,Buffalo,80.1,251.74,151.95,240.4,644.1,Single-ply,SBD,M
Boys,89.81,3,Kevin Jones #9,Elysian Fields,82.19,238.14,151.95,235.87,625.96,Single-ply,SBD,M
Boys,82.1,4,Gaige Thomas,Red Oak Life,79.38,226.8,120.2,222.26,569.26,Single-ply,SBD,M
Boys,82.1,5,Austin Musser,Mineola,79.92,226.8,122.47,201.85,551.11,Single-ply,SBD,M
Boys,82.1,6,Caleb Williams,Frankston,79.65,190.51,117.93,240.4,548.85,Single-ply,SBD,M
Boys,82.1,7,Shaquille Grant,Linden-Kildare,79.29,217.72,106.59,217.72,542.04,Single-ply,SBD,M
Boys,82.1,8,Leo Meyers,Linden-Kildare,80.2,195.04,131.54,213.19,539.77,Single-ply,SBD,M
Boys,82.1,9,Jake Shinn,Quinlan Boles,77.66,213.19,102.06,204.12,519.36,Single-ply,SBD,M
Boys,82.1,10,Josh Presson,White Oak,76.02,188.24,115.67,199.58,503.49,Single-ply,SBD,M
Boys,89.81,1,Josh Trumble,Redwater,87.27,272.16,181.44,263.08,716.68,Single-ply,SBD,M
Boys,89.81,2,Ty Jones,New Boston,86.45,272.16,158.76,226.8,657.71,Single-ply,SBD,M
Boys,89.81,3,Dj Woods,Kerens,89.36,258.55,142.88,233.6,635.03,Single-ply,SBD,M
Boys,89.81,4,Cole Yeldell,Redwater,86.91,208.65,158.76,204.12,571.53,Single-ply,SBD,M
Boys,89.81,5,Papa Chisum,Hughes Springs,88.72,213.19,131.54,219.99,564.72,Single-ply,SBD,M
Boys,89.81,6,Ivan Rivas,Buffalo,88.63,199.58,154.22,208.65,562.45,Single-ply,SBD,M
Boys,89.81,7,Jody Bernal,Rice,86.18,208.65,131.54,213.19,553.38,Single-ply,SBD,M
Boys,89.81,8,Taylor Ligon,Diana New Diana,88,206.38,145.15,174.63,526.17,Single-ply,SBD,M
Boys,89.81,DQ,Ben Torres,Rice,88.99,199.58,,,,Single-ply,SBD,M
Boys,89.81,DQ,Thomas Tilford,Scurry-Rosser,83.19,208.65,,,,Single-ply,SBD,M
Boys,99.79,1,Ragan Henderson,Rice,99.79,249.48,156.49,276.69,682.66,Single-ply,SBD,M
Boys,99.79,2,Kelton Henderson,Teague,97.52,285.76,149.69,244.94,680.39,Single-ply,SBD,M
Boys,99.79,3,Damien Haskins,New Boston,96.34,249.48,149.69,258.55,657.71,Single-ply,SBD,M
Boys,99.79,4,Tucker Saxton,New Waverly,98.16,240.4,131.54,263.08,635.03,Single-ply,SBD,M
Boys,99.79,5,Josh Ashlock,Maypearl,98.34,235.87,124.74,244.94,605.55,Single-ply,SBD,M
Boys,99.79,6,Jacobie Briscoe,Redwater,96.89,229.06,147.42,213.19,589.67,Single-ply,SBD,M
Boys,99.79,7,Brandon Morris,Scurry-Rosser,94.89,213.19,120.2,217.72,551.11,Single-ply,SBD,M
Boys,99.79,8,Chris Valencia,Shelbyville,95.8,226.8,113.4,208.65,548.85,Single-ply,SBD,M
Boys,99.79,9,Justin Warner,Cooper,93.8,204.12,127.01,195.04,526.17,Single-ply,SBD,M
Boys,99.79,DQ,KaLynn Miller,Paris Chisum,95.07,215.46,,,,Single-ply,SBD,M
Boys,109.77,1,Reggie Scales,New Boston,107.23,326.59,183.7,254.01,764.3,Single-ply,SBD,M
Boys,109.77,2,Dewey Fleming,Redwater,105.41,294.84,192.78,254.01,741.62,Single-ply,SBD,M
Boys,109.77,3,Colby Spencer,Cushing,105.32,249.48,136.08,226.8,612.35,Single-ply,SBD,M
Boys,109.77,4,Anthony Ringenberg,Cumby,105.23,258.55,131.54,217.72,607.81,Single-ply,SBD,M
Boys,109.77,5,Anthony McGovern,Winnsboro,105.78,260.82,142.88,185.97,589.67,Single-ply,SBD,M
Boys,109.77,6,Clifford Dial,Ore City,103.87,226.8,131.54,213.19,571.53,Single-ply,SBD,M
Boys,109.77,7,Danny Hanna,Corsicana Mildred,105.41,226.8,136.08,208.65,571.53,Single-ply,SBD,M
Boys,109.77,8,Jeff Davis,White Oak,106.14,213.19,117.93,213.19,544.31,Single-ply,SBD,M
Boys,109.77,9,Ben Long,Teague,107.95,226.8,124.74,192.78,544.31,Single-ply,SBD,M
Boys,109.77,DQ,Mario Cortez,Buffalo,104.05,197.31,,,,Single-ply,SBD,M
Boys,124.74,1,Tristen Walsworth,Troup,112.58,265.35,156.49,238.14,659.98,Single-ply,SBD,M
Boys,124.74,2,Dj Parks,San Augustine,119.93,272.16,161.03,226.8,659.98,Single-ply,SBD,M
Boys,124.74,3,Dylon Isom,Normangee,118.3,267.62,122.47,251.74,641.83,Single-ply,SBD,M
Boys,124.74,4,Jose Diaz,Teague,110.59,260.82,133.81,244.94,639.57,Single-ply,SBD,M
Boys,124.74,5,Beau Jenkins,Corsicana Mildred,120.93,226.8,192.78,190.51,610.08,Single-ply,SBD,M
Boys,124.74,6,Rhett Golden,Joaquin,116.57,242.67,140.61,206.38,589.67,Single-ply,SBD,M
Boys,124.74,7,Ryan Raney,Wolfe City,123.1,215.46,163.29,204.12,582.87,Single-ply,SBD,M
Boys,124.74,8,Colton Byler,Mount Enterprise,112.04,238.14,124.74,204.12,566.99,Single-ply,SBD,M
Boys,124.74,DQ,Raul Torres,Palmer,122.11,215.46,136.08,,,Single-ply,SBD,M
Boys,124.74,DQ,Austin Underbrink,Joaquin,123.1,,,,,Single-ply,SBD,M
Boys,124.74+,1,Alan Singleton,Milford,189.78,272.16,163.29,233.6,669.05,Single-ply,SBD,M
Boys,124.74+,2,D'Zavier Harris,Troup,133.99,263.08,156.49,235.87,655.44,Single-ply,SBD,M
Boys,124.74+,3,Cris Whitaker,Caddo Mills,132.81,265.35,161.03,226.8,653.17,Single-ply,SBD,M
Boys,124.74+,4,Ryan Russell,Hughes Springs,130.18,242.67,163.29,219.99,625.96,Single-ply,SBD,M
Boys,124.74+,5,Tyler Heard,Scurry-Rosser,146.78,258.55,154.22,204.12,616.89,Single-ply,SBD,M
Boys,124.74+,6,Trey Villareal,Diana New Diana,144.24,233.6,145.15,226.8,605.55,Single-ply,SBD,M
Boys,124.74+,7,Thomas Acol,Malakoff,130.09,222.26,127.01,229.06,578.33,Single-ply,SBD,M
Boys,124.74+,8,Ethan Still,Kerens,186.61,222.26,127.01,195.04,544.31,Single-ply,SBD,M
Boys,124.74+,9,Wesley Holmes,New Boston,130,226.8,115.67,190.51,532.97,Single-ply,SBD,M
Boys,124.74+,10,Michael Williams,Dawson,139.34,219.99,92.99,204.12,517.1,Single-ply,SBD,M
