Name,Team,Division,BodyweightKg,WeightClassKg,Squat1Kg,Squat2Kg,Squat3Kg,Best3SquatKg,Bench1Kg,Bench2Kg,Bench3Kg,Best3BenchKg,Deadlift1Kg,Deadlift2Kg,Deadlift3Kg,Best3DeadliftKg,TotalKg,Sex,Place,Event,Equipment
Hannah Jackson,Devon,FR-O,55,57,100,105,107.5,107.5,60,65,67.5,67.5,117.5,125,130,130,305,F,1,SBD,Raw
Rhianna Skeates,Devon,FR-O,54.9,57,85,92.5,-95,92.5,42.5,-47.5,-47.5,42.5,110,-120,-120,110,245,F,2,SBD,Raw
Dashiell Murray,Cornwall,FR-O,54.7,57,-90,95,-105,95,40,45,47.5,47.5,90,100,-115,100,242.5,F,3,SBD,Raw
Sarah Clifton,Someset,FR-O,61.1,63,107.5,115,120,120,70,75,-80,75,127.5,140,147.5,147.5,342.5,F,1,SBD,Raw
Ivy Owens,Devon,FR-O,61.2,63,90,100,110,110,-60,60,65,65,115,-125,-130,115,290,F,2,SBD,Raw
Raluca Popp,Devon,FR-O,57.9,63,92.5,100,105,105,47.5,52.5,57.5,57.5,115,120,125,125,287.5,F,3,SBD,Raw
Yanou Athineos,Bristol,FR-O,61.9,63,-92.5,92.5,-97.5,92.5,50,-52.5,52.5,52.5,122.5,127.5,132.5,132.5,277.5,F,4,SBD,Raw
Jessica Board,Devon,FR-O,60.6,63,92.5,100,102.5,102.5,52.5,55,-57.5,55,95,100,-105,100,257.5,F,5,SBD,Raw
Emma Williams,Devon,FR-O,61.6,63,80,85,-87.5,85,42.5,47.5,52.5,52.5,100,107.5,115,115,252.5,F,6,SBD,Raw
Adina Pintilie,Devon,FR-O,61.3,63,77.5,85,-90,85,37.5,42.5,-47.5,42.5,105,112.5,120,120,247.5,F,7,SBD,Raw
Louise Anning,Devon,FR-O,71.7,72,105,115,120,120,67.5,-72.5,75,75,150,160,-170,160,355,F,1,SBD,Raw
Ellie Baker,Cornwall,FR-O,67.9,72,105,115,-122.5,115,52.5,57.5,-62.5,57.5,125,132.5,137.5,137.5,310,F,2,SBD,Raw
Lauren Smith,Devon,FR-O,68.4,72,100,-110,-110,100,45,47.5,50,50,115,120,125,125,275,F,3,SBD,Raw
Nadine Rieser,Cornwall,FR-O,67.4,72,62.5,72.5,80,80,60,62.5,-67.5,62.5,100,110,112.5,112.5,255,F,4,SBD,Raw
Emma Tomkins,Cornwall,FR-O,81.7,84,110,-127.5,127.5,127.5,55,57.5,60,60,145,150,152.5,152.5,340,F,1,SBD,Raw
Rebekah Coveney,Bristol,FR-O,77.6,84,80,87.5,92.5,92.5,55,60,-65,60,112.5,120,-125,120,272.5,F,2,SBD,Raw
Lou Riley,WM,FR-O,73.7,84,-80,90,95,95,-72.5,-72.5,-72.5,,-120,,,,,F,DQ,SBD,Raw
Donna Scott,Cornwall,FR-O,105.7,84+,110,127.5,-137.5,127.5,47.5,55,60,60,135,155,160,160,347.5,F,1,SBD,Raw
Jaqueline Tilley,Glos.,FR-O,98.1,84+,95,100,-107.5,100,60,65,-70,65,115,122.5,-130,122.5,287.5,F,2,SBD,Raw
Lewis Hawkins,Dorset,MR-O,72.1,74,132.5,142.5,150,150,-90,90,-95,90,162.5,172.5,182.5,182.5,422.5,M,1,SBD,Raw
Lewis Brian,Somerset,MR-O,82.9,83,225,235,240,240,147.5,152.5,155,155,250,260,-265,260,655,M,1,SBD,Raw
Mark Woolley,Devon,MR-O,82.3,83,192.5,202.5,210,210,120,125,130,130,220,230,-240,230,570,M,2,SBD,Raw
Dennis Bell,Somerset,MR-O,81.6,83,167.5,182.5,187.5,187.5,110,117.5,125,125,200,217.5,222.5,222.5,535,M,3,SBD,Raw
Ollie Smail,Devon,MR-O,77.1,83,-150,160,175,175,115,122.5,-130,122.5,235,-265,,235,532.5,M,4,SBD,Raw
Connor Marshall,Somerset,MR-O,82.4,83,165,177.5,185,185,-120,127.5,132.5,132.5,195,205,215,215,532.5,M,5,SBD,Raw
Josh Chamberlaine,Devon,MR-O,81.4,83,-165,165,175,175,105,112.5,117.5,117.5,200,210,215,215,507.5,M,6,SBD,Raw
Alex Dean,Devon,MR-O,76.2,83,142.5,152.5,157.5,157.5,122.5,130,-135,130,140,,,140,427.5,M,7,SBD,Raw
Robbie Turner,Somerset,MR-O,81.9,83,120,135,142.5,142.5,82.5,-90,95,95,140,152.5,-162.5,152.5,390,M,8,SBD,Raw
Matt Burge,WM,MR-O,92,93,-220,-220,220,220,140,150,160,160,-255,255,-275,255,635,M,1,SBD,Raw
Joe Humphrey,Wilts,MR-O,92.3,93,175,185,192.5,192.5,122.5,130,135,135,205,215,225,225,552.5,M,2,SBD,Raw
Jack Lynch,Devon,MR-O,85.5,93,185,195,205,205,115,120,125,125,187.5,,,187.5,517.5,M,3,SBD,Raw
Alexander Neve,Devon,MR-O,90.8,93,180,190,-200,190,115,120,130,130,185,195,,195,515,M,4,SBD,Raw
Alexander Ewen,Somerset,MR-O,95.2,105,200,210,217.5,217.5,140,150,157.5,157.5,235,257.5,-262.5,257.5,632.5,M,1,SBD,Raw
Owen Spencer,Somerset,MR-O,103,105,200,215,227.5,227.5,125,132.5,137.5,137.5,240,260,-272.5,260,625,M,2,SBD,Raw
Lewis Ireland,Devon,MR-O,103.7,105,207.5,217.5,222.5,222.5,135,-142.5,-145,135,250,262.5,-267.5,262.5,620,M,3,SBD,Raw
Nicolas Podevijn,Somerset,MR-O,116.5,120,225,235,245,245,147.5,155,162.5,162.5,230,245,255,255,662.5,M,1,SBD,Raw
Sam Brady,WM,MR-O,119.5,120,-192.5,192.5,202.5,202.5,135,140,147.5,147.5,225,235,250,250,600,M,2,SBD,Raw
Christian Faulkner,Somerset,MR-O,111.5,120,190,200,210,210,120,-130,130,130,200,210,-220,210,550,M,3,SBD,Raw
Lewis Bispham,Somerset,MR-O,113,120,200,210,-220,210,127.5,135,-140,135,190,200,205,205,550,M,4,SBD,Raw
Andrew Reynolds,Somerset,MR-O,131.7,120+,220,-235,235,235,-170,182.5,-190,182.5,225,235,245,245,662.5,M,1,SBD,Raw
Louis Phelps,Glos.,M-O,104,105,280,-295,312.5,312.5,155,160,,160,252.5,,,252.5,725,M,1,SBD,Single-ply
